module gitlab.com/strasheim/discorddice

go 1.23

toolchain go1.23.3

require (
	github.com/bwmarrin/discordgo v0.27.1
	github.com/daku10/go-lz-string v0.0.6
	github.com/google/generative-ai-go v0.18.0
	google.golang.org/api v0.203.0
)

require (
	cloud.google.com/go v0.116.0 // indirect
	cloud.google.com/go/ai v0.8.0 // indirect
	cloud.google.com/go/auth v0.9.9 // indirect
	cloud.google.com/go/auth/oauth2adapt v0.2.4 // indirect
	cloud.google.com/go/compute/metadata v0.5.2 // indirect
	cloud.google.com/go/longrunning v0.5.7 // indirect
	github.com/felixge/httpsnoop v1.0.4 // indirect
	github.com/go-logr/logr v1.4.2 // indirect
	github.com/go-logr/stdr v1.2.2 // indirect
	github.com/golang/groupcache v0.0.0-20210331224755-41bb18bfe9da // indirect
	github.com/google/s2a-go v0.1.8 // indirect
	github.com/google/uuid v1.6.0 // indirect
	github.com/googleapis/enterprise-certificate-proxy v0.3.4 // indirect
	github.com/googleapis/gax-go/v2 v2.13.0 // indirect
	github.com/gorilla/websocket v1.4.2 // indirect
	go.opencensus.io v0.24.0 // indirect
	go.opentelemetry.io/contrib/instrumentation/google.golang.org/grpc/otelgrpc v0.54.0 // indirect
	go.opentelemetry.io/contrib/instrumentation/net/http/otelhttp v0.54.0 // indirect
	go.opentelemetry.io/otel v1.29.0 // indirect
	go.opentelemetry.io/otel/metric v1.29.0 // indirect
	go.opentelemetry.io/otel/trace v1.29.0 // indirect
	golang.org/x/crypto v0.28.0 // indirect
	golang.org/x/net v0.30.0 // indirect
	golang.org/x/oauth2 v0.23.0 // indirect
	golang.org/x/sync v0.8.0 // indirect
	golang.org/x/sys v0.26.0 // indirect
	golang.org/x/text v0.19.0 // indirect
	golang.org/x/time v0.7.0 // indirect
	google.golang.org/genproto/googleapis/api v0.0.0-20240903143218-8af14fe29dc1 // indirect
	google.golang.org/genproto/googleapis/rpc v0.0.0-20241015192408-796eee8c2d53 // indirect
	google.golang.org/grpc v1.67.1 // indirect
	google.golang.org/protobuf v1.35.1 // indirect
)
